Recent developments in R tidyverse
…
## # A tibble: 3 x 6
##   species island    sex     year bill_length_mm bill_depth_mm
##   <fct>   <fct>     <fct>  <int>          <dbl>         <dbl>
## 1 Adelie  Torgersen male    2007           39.1          18.7
## 2 Adelie  Torgersen female  2007           39.5          17.4
## 3 Adelie  Torgersen female  2007           40.3          18

my_select_func <- function(var_name){
  return(is.factor(var_name))
}

penguins %>% 
  dplyr::select(where(my_select_func)) 

## # A tibble: 344 x 3
##    species island    sex   
##    <fct>   <fct>     <fct> 
##  1 Adelie  Torgersen male  
##  2 Adelie  Torgersen female
##  3 Adelie  Torgersen female
##  4 Adelie  Torgersen <NA>  
##  5 Adelie  Torgersen female
##  6 Adelie  Torgersen male  
##  7 Adelie  Torgersen female
##  8 Adelie  Torgersen male  
##  9 Adelie  Torgersen <NA>  
## 10 Adelie  Torgersen <NA>  
## #  with 334 more rows
…
3. Controlling mutated column location

To control the location of the newly added column, use dplyr::mutate()s option (similar to aboves dplyr::relocate())

penguins <- penguins %>% 
  dplyr::mutate(penguinid = row_number(), .before = everything()) 

penguins 

## # A tibble: 344 x 9
##    penguinid species island bill_length_mm bill_depth_mm flipper_length_
##        <int> <fct>   <fct>           <dbl>         <dbl>            <int>
##  1         1 Adelie  Torge           39.1          18.7              181
##  2         2 Adelie  Torge           39.5          17.4              186
##  3         3 Adelie  Torge           40.3          18                195
##  4         4 Adelie  Torge           NA            NA                 NA
##  5         5 Adelie  Torge           36.7          19.3              193
##  6         6 Adelie  Torge           39.3          20.6              190
##  7         7 Adelie  Torge           38.9          17.8              181
##  8         8 Adelie  Torge           39.2          19.6              195
##  9         9 Adelie  Torge           34.1          18.1              193
## 10        10 Adelie  Torge           42            20.2              190
## #  with 334 more rows, and 3 more variables: body_mass_g <int>, sex <fct>,
## #   year <int>

4. Transforming from wide to long

To transform data set from wide(r) to long(er) form, use tidyr::pivot_longer() which is an updated approach to an older tidyr::gather().

penguins %>% 
  tidyr::pivot_longer(cols = contains("_"),  # pivot these columns
                      names_to = "variable_name", # name of column containing "old columns" names
                      values_to = "variable_value")  # name of column containing "old columns" values

## # A tibble: 1,376 x 7
##    penguinid species island    sex     year variable_name     variable_value
##        <int> <fct>   <fct>     <fct>  <int> <chr>                      <dbl>
##  1         1 Adelie  Torgersen male    2007 bill_length_mm              39.1
##  2         1 Adelie  Torgersen male    2007 bill_depth_mm               18.7
##  3         1 Adelie  Torgersen male    2007 flipper_length_mm          181  
##  4         1 Adelie  Torgersen male    2007 body_mass_g               3750  
##  5         2 Adelie  Torgersen female  2007 bill_length_mm              39.5
##  6         2 Adelie  Torgersen female  2007 bill_depth_mm               17.4
##  7         2 Adelie  Torgersen female  2007 flipper_length_mm          186  
##  8         2 Adelie  Torgersen female  2007 body_mass_g               3800  
##  9         3 Adelie  Torgersen female  2007 bill_length_mm              40.3
## 10         3 Adelie  Torgersen female  2007 bill_depth_mm               18  
## #  with 1,366 more rows

# as previous example, but simultaneously split the names of columns 
# which we pivot into longer format by "_" separator 
penguins_longer <- penguins %>% 
  tidyr::pivot_longer(cols = contains("_"), # pivot these columns
                      names_sep = "_", 
                      names_to = c("part", "measure", "unit"), # name of column(s) containing "old columns" names
                      values_to = "measure_value" ) # name of column containing "old columns" values

penguins_longer 

## # A tibble: 1,376 x 9
##    penguinid species island    sex     year part    measure unit  measure_value
##        <int> <fct>   <fct>     <fct>  <int> <chr>   <chr>   <chr>         <dbl>
##  1         1 Adelie  Torgersen male    2007 bill    length  mm             39.1
##  2         1 Adelie  Torgersen male    2007 bill    depth   mm             18.7
##  3         1 Adelie  Torgersen male    2007 flipper length  mm            181  
##  4         1 Adelie  Torgersen male    2007 body    mass    g            3750  
##  5         2 Adelie  Torgersen female  2007 bill    length  mm             39.5
##  6         2 Adelie  Torgersen female  2007 bill    depth   mm             17.4
##  7         2 Adelie  Torgersen female  2007 flipper length  mm            186  
##  8         2 Adelie  Torgersen female  2007 body    mass    g            3800  
##  9         3 Adelie  Torgersen female  2007 bill    length  mm             40.3
## 10         3 Adelie  Torgersen female  2007 bill    depth   mm             18  
## #  with 1,366 more rows

5. Transforming from long to wide

To transform data set from long(er) to wide(r) form, use tidyr::pivot_wider() which is an updated approach to an older tidyr::spread().

# revert from long form from previous example 
penguins_wider <- penguins_longer %>% 
  tidyr::pivot_wider(names_from = c("part", "measure", "unit"), # pivot these columns
                     values_from = "measure_value", # take the values from here
                     names_sep = "_") # combine col names using an underscore

penguins_wider

## # A tibble: 344 x 9
##    penguinid species island sex    year bill_length_mm bill_depth_mm
##        <int> <fct>   <fct>  <fct> <int>          <dbl>         <dbl>
##  1         1 Adelie  Torge male   2007           39.1          18.7
##  2         2 Adelie  Torge fema  2007           39.5          17.4
##  3         3 Adelie  Torge fema  2007           40.3          18  
##  4         4 Adelie  Torge <NA>   2007           NA            NA  
##  5         5 Adelie  Torge fema  2007           36.7          19.3
##  6         6 Adelie  Torge male   2007           39.3          20.6
##  7         7 Adelie  Torge fema  2007           38.9          17.8
##  8         8 Adelie  Torge male   2007           39.2          19.6
##  9         9 Adelie  Torge <NA>   2007           34.1          18.1
## 10        10 Adelie  Torge <NA>   2007           42            20.2
## #  with 334 more rows, and 2 more variables: flipper_length_mm <dbl>,
## #   body_mass_g <dbl>
…
