Computing minute-level summary measures of physical activity from raw accelerometry data in R: AC, MIMS, MAD, and AI | Home
…
# define path to raw data files directory
raw_files_dir <- paste0(
  "/Users/martakaras/Downloads",
  "/labeled-raw-accelerometry-data-captured-during-walking-stair-climbing-and-driving-1.0.0",
  "/raw_accelerometry_data")

# single participant's raw accelerometry data
dat_fpaths <- list.files(raw_files_dir, full.names = TRUE)
dat_i <- read_csv(dat_fpaths[1])

dat_i

# A tibble: 303,300 x 14
   activity time_s   lw_x   lw_y   lw_z   lh_x   lh_y   lh_z   la_x  la_y   la_z   ra_x  ra_y  ra_z
      <dbl>  <dbl>  <dbl>  <dbl>  <dbl>  <dbl>  <dbl>  <dbl>  <dbl> <dbl>  <dbl>  <dbl> <dbl> <dbl>
 1       99   0.01  0.039  1.02  -0.02  -0.18   1.23   0.023  0.156 0.855 -0.582  0.887 0.449 0.074
 2       99   0.02 -0.629 -0.461  0.973 -0.246  0.137  0.969 -0.707 0.559  0.449 -0.027 0.141 0.934
 3       99   0.03 -0.926 -1.26   0.691  0.238 -0.328  1.22  -1.44  1.37   0.367 -0.164 0.66  1.34 
 4       99   0.04 -0.871 -1.50  -0.246  0.711 -0.484  0.414 -1.66  1.64  -0.543 -0.141 1.03  0.707
 5       99   0.05 -0.727 -1.62  -0.559  1.03  -0.297  0.145 -1.76  1.68  -0.918 -0.121 1.23  0.438
 6       99   0.06 -0.543 -1.66  -0.629  1.12  -0.246  0.137 -1.80  1.65  -0.988 -0.051 1.42  0.371
 7       99   0.07 -0.348 -1.64  -0.609  1.24  -0.426  0.047 -1.76  1.57  -0.992  0.09  1.63  0.383
 8       99   0.08 -0.16  -1.60  -0.566  1.18  -0.539 -0.008 -1.63  1.53  -1.02   0.25  1.83  0.387
 9       99   0.09 -0.012 -1.53  -0.523  1.03  -0.633 -0.043 -1.13  1.87  -0.738  0.363 2     0.328
10       99   0.1   0.117 -1.43  -0.484  0.922 -0.766 -0.047  0.285 1.37  -0.156  0.473 2.13  0.203
# … with 303,290 more rows
…
The option options(digits.secs = 3) was used on the top of this R
script to allow displaying decimal time part.

We first demonstrate the code for one participant.

dat_input_i <- 
  dat_i %>% 
  mutate(HEADER_TIME_STAMP = seq(from = ymd_hms("2021-01-01 00:00:00"), by = 0.01, length.out = nrow(dat_i))) %>%
  select(HEADER_TIME_STAMP, X = lw_x, Y = lw_y, Z = lw_z)

dat_input_i

# A tibble: 303,300 x 4
   HEADER_TIME_STAMP            X      Y      Z
   <dttm>                   <dbl>  <dbl>  <dbl>
 1 2021-01-01 00:00:00.000  0.039  1.02  -0.02 
 2 2021-01-01 00:00:00.009 -0.629 -0.461  0.973
 3 2021-01-01 00:00:00.019 -0.926 -1.26   0.691
 4 2021-01-01 00:00:00.029 -0.871 -1.50  -0.246
 5 2021-01-01 00:00:00.039 -0.727 -1.62  -0.559
 6 2021-01-01 00:00:00.049 -0.543 -1.66  -0.629
 7 2021-01-01 00:00:00.059 -0.348 -1.64  -0.609
 8 2021-01-01 00:00:00.069 -0.16  -1.60  -0.566
 9 2021-01-01 00:00:00.079 -0.012 -1.53  -0.523
10 2021-01-01 00:00:00.089  0.117 -1.43  -0.484
# … with 303,290 more rows
…
out_i = SummarizedActigraphy::calculate_measures(
  df = dat_input_i, 
  dynamic_range = c(-8, 8),  # dynamic range
  fix_zeros = FALSE,         # fixes zeros from idle sleep mode -- not needed in our case 
  calculate_mims = TRUE,     # uses algorithm from MIMSunit package
  calculate_ac = TRUE,       # uses algorithm from activityCounts package 
  flag_data = FALSE,         # runs raw data quality control flags algorithm -- not used in our case  
  verbose = FALSE)

=================================================================================================================

out_i <- out_i %>% select(HEADER_TIME_STAMP = time, AC, MIMS = MIMS_UNIT, MAD, AI)
out_i

# A tibble: 51 x 5
   HEADER_TIME_STAMP            AC  MIMS     MAD    AI
   <dttm>                    <dbl> <dbl>   <dbl> <dbl>
 1 2021-01-01 00:00:00.000  3623.  19.3  0.140    7.62
 2 2021-01-01 00:01:00.000  2460.  14.8  0.0971   5.84
 3 2021-01-01 00:02:00.000   648.   6.52 0.0192   2.44
 4 2021-01-01 00:03:00.000    36.2  1.86 0.00862  1.03
 5 2021-01-01 00:04:00.000  8084.  34.8  0.316   15.1 
 6 2021-01-01 00:05:00.000 13845.  60.1  0.358   25.3 
 7 2021-01-01 00:06:00.000 10549.  44.1  0.248   18.7 
 8 2021-01-01 00:07:00.000 11219.  45.8  0.244   19.6 
 9 2021-01-01 00:08:00.000 11624.  51.6  0.338   22.1 
10 2021-01-01 00:09:00.000 11049.  45.8  0.288   20.0 
# … with 41 more rows
…
# merge: 
# (1) physical activity minute-level measures, 
# (2) physical activity minute-level activity labels
out_all_merged <- 
  out_all %>% 
  inner_join(labels_df_all, by = c("subj_id", "HEADER_TIME_STAMP")) 

out_all_merged

# A tibble: 686 x 7
   subj_id    HEADER_TIME_STAMP           AC  MIMS    MAD    AI activity
   <chr>      <dttm>                   <dbl> <dbl>  <dbl> <dbl> <chr>   
 1 id00b70b13 2021-01-01 00:06:00.000 10549. 44.1  0.248  18.7  walking 
 2 id00b70b13 2021-01-01 00:07:00.000 11219. 45.8  0.244  19.6  walking 
 3 id00b70b13 2021-01-01 00:11:00.000 11026. 42.3  0.215  18.9  walking 
 4 id00b70b13 2021-01-01 00:12:00.000 10561. 42.1  0.231  19.1  walking 
 5 id00b70b13 2021-01-01 00:13:00.000 13297. 53.9  0.325  23.1  walking 
 6 id00b70b13 2021-01-01 00:21:00.000  2603. 14.5  0.0413  4.80 driving 
 7 id00b70b13 2021-01-01 00:23:00.000   499.  6.65 0.0537  3.59 driving 
 8 id00b70b13 2021-01-01 00:24:00.000   398.  6.06 0.0496  3.49 driving 
 9 id00b70b13 2021-01-01 00:25:00.000   130.  5.92 0.0560  3.67 driving 
10 id00b70b13 2021-01-01 00:26:00.000   414.  7.00 0.0561  3.55 driving 
# … with 676 more rows
…
